,A,B,C,D,E,F,G,somme,dist_max,centre,rayon,diametre
A,0,1,2,3,2,3,4,15,4,,,
B,1,0,1,2,1,2,3,10,3,,,
C,2,1,0,1,1,2,3,10,3,,,
D,3,2,1,0,2,3,4,15,4,,,
E,2,1,1,2,0,1,2,9,2,E,2,
F,3,2,2,3,1,0,1,12,3,,,
G,4,3,3,4,2,1,0,17,4,,,4
